%YAML 1.1
%TAG !u! tag:unity3d.com,2011:
--- !u!74 &7400000
AnimationClip:
  m_ObjectHideFlags: 0
  m_PrefabParentObject: {fileID: 0}
  m_PrefabInternal: {fileID: 0}
  m_Name: NinjaIdle
  serializedVersion: 6
  m_Legacy: 0
  m_Compressed: 0
  m_UseHighQualityCurve: 1
  m_RotationCurves: []
  m_CompressedRotationCurves: []
  m_EulerCurves: []
  m_PositionCurves: []
  m_ScaleCurves: []
  m_FloatCurves: []
  m_PPtrCurves:
  - curve:
    - time: 0
      value: {fileID: 21300000, guid: c46dfa3a08ba85b4a9e1505bc6ff6c6f, type: 3}
    - time: 0.083333336
      value: {fileID: 21300000, guid: a5c3ec9f36aff294a9e4bddf6ba50752, type: 3}
    - time: 0.16666667
      value: {fileID: 21300000, guid: 036e671229633a94b894c617156bfb51, type: 3}
    - time: 0.25
      value: {fileID: 21300000, guid: 473c60946b6ed28478241476414f77e9, type: 3}
    - time: 0.33333334
      value: {fileID: 21300000, guid: b4e19f24cec74c742b75202a6c475dd1, type: 3}
    - time: 0.41666666
      value: {fileID: 21300000, guid: 8578865d52a3c704a939a562ee4ae8e0, type: 3}
    - time: 0.5
      value: {fileID: 21300000, guid: 87ebba3e593026b44b94ed1bfe71ab2f, type: 3}
    - time: 0.5833333
      value: {fileID: 21300000, guid: db541969e10c6a444af44525f68e34e1, type: 3}
    - time: 0.6666667
      value: {fileID: 21300000, guid: b025de285ad3b7f478ae438459a8c8b4, type: 3}
    - time: 0.75
      value: {fileID: 21300000, guid: c4b7ec6fefb00bf499ed5e052dbe2a2e, type: 3}
    attribute: m_Sprite
    path: 
    classID: 212
    script: {fileID: 0}
  m_SampleRate: 12
  m_WrapMode: 0
  m_Bounds:
    m_Center: {x: 0, y: 0, z: 0}
    m_Extent: {x: 0, y: 0, z: 0}
  m_ClipBindingConstant:
    genericBindings:
    - serializedVersion: 2
      path: 0
      attribute: 0
      script: {fileID: 0}
      typeID: 212
      customType: 23
      isPPtrCurve: 1
    pptrCurveMapping:
    - {fileID: 21300000, guid: c46dfa3a08ba85b4a9e1505bc6ff6c6f, type: 3}
    - {fileID: 21300000, guid: a5c3ec9f36aff294a9e4bddf6ba50752, type: 3}
    - {fileID: 21300000, guid: 036e671229633a94b894c617156bfb51, type: 3}
    - {fileID: 21300000, guid: 473c60946b6ed28478241476414f77e9, type: 3}
    - {fileID: 21300000, guid: b4e19f24cec74c742b75202a6c475dd1, type: 3}
    - {fileID: 21300000, guid: 8578865d52a3c704a939a562ee4ae8e0, type: 3}
    - {fileID: 21300000, guid: 87ebba3e593026b44b94ed1bfe71ab2f, type: 3}
    - {fileID: 21300000, guid: db541969e10c6a444af44525f68e34e1, type: 3}
    - {fileID: 21300000, guid: b025de285ad3b7f478ae438459a8c8b4, type: 3}
    - {fileID: 21300000, guid: c4b7ec6fefb00bf499ed5e052dbe2a2e, type: 3}
  m_AnimationClipSettings:
    serializedVersion: 2
    m_AdditiveReferencePoseClip: {fileID: 0}
    m_AdditiveReferencePoseTime: 0
    m_StartTime: 0
    m_StopTime: 0.8333333
    m_OrientationOffsetY: 0
    m_Level: 0
    m_CycleOffset: 0
    m_HasAdditiveReferencePose: 0
    m_LoopTime: 1
    m_LoopBlend: 0
    m_LoopBlendOrientation: 0
    m_LoopBlendPositionY: 0
    m_LoopBlendPositionXZ: 0
    m_KeepOriginalOrientation: 0
    m_KeepOriginalPositionY: 1
    m_KeepOriginalPositionXZ: 0
    m_HeightFromFeet: 0
    m_Mirror: 0
  m_EditorCurves: []
  m_EulerEditorCurves: []
  m_HasGenericRootTransform: 0
  m_HasMotionFloatCurves: 0
  m_GenerateMotionCurves: 0
  m_Events: []
