%YAML 1.1
%TAG !u! tag:unity3d.com,2011:
--- !u!74 &7400000
AnimationClip:
  m_ObjectHideFlags: 0
  m_PrefabParentObject: {fileID: 0}
  m_PrefabInternal: {fileID: 0}
  m_Name: ZombieWalk
  serializedVersion: 6
  m_Legacy: 0
  m_Compressed: 0
  m_UseHighQualityCurve: 1
  m_RotationCurves: []
  m_CompressedRotationCurves: []
  m_EulerCurves: []
  m_PositionCurves: []
  m_ScaleCurves: []
  m_FloatCurves: []
  m_PPtrCurves:
  - curve:
    - time: 0
      value: {fileID: 21300000, guid: 0c85e52e50ed5da41b5a8043090e1948, type: 3}
    - time: 0.083333336
      value: {fileID: 21300000, guid: 89322912de4dd264ba7f395cfd36cb59, type: 3}
    - time: 0.16666667
      value: {fileID: 21300000, guid: 352e93727eeb76749ae7b9bb95b5f596, type: 3}
    - time: 0.25
      value: {fileID: 21300000, guid: 168ea3086d1aa554db63474801d64022, type: 3}
    - time: 0.33333334
      value: {fileID: 21300000, guid: b257612c1b6b8d14aa68c5ef43d786b8, type: 3}
    - time: 0.41666666
      value: {fileID: 21300000, guid: 9d166716e07466343a142ab15ecf6a80, type: 3}
    - time: 0.5
      value: {fileID: 21300000, guid: 2843d6b87dab6a34f88523e7cde72978, type: 3}
    - time: 0.5833333
      value: {fileID: 21300000, guid: 864aeba5a9118974388db98aba61cf5a, type: 3}
    - time: 0.6666667
      value: {fileID: 21300000, guid: da9c6905df905ef439ea29d60c8a257d, type: 3}
    - time: 0.75
      value: {fileID: 21300000, guid: 01aba55f66bf25e409cb6bd0e050501c, type: 3}
    attribute: m_Sprite
    path: 
    classID: 212
    script: {fileID: 0}
  m_SampleRate: 12
  m_WrapMode: 0
  m_Bounds:
    m_Center: {x: 0, y: 0, z: 0}
    m_Extent: {x: 0, y: 0, z: 0}
  m_ClipBindingConstant:
    genericBindings:
    - serializedVersion: 2
      path: 0
      attribute: 0
      script: {fileID: 0}
      typeID: 212
      customType: 23
      isPPtrCurve: 1
    pptrCurveMapping:
    - {fileID: 21300000, guid: 0c85e52e50ed5da41b5a8043090e1948, type: 3}
    - {fileID: 21300000, guid: 89322912de4dd264ba7f395cfd36cb59, type: 3}
    - {fileID: 21300000, guid: 352e93727eeb76749ae7b9bb95b5f596, type: 3}
    - {fileID: 21300000, guid: 168ea3086d1aa554db63474801d64022, type: 3}
    - {fileID: 21300000, guid: b257612c1b6b8d14aa68c5ef43d786b8, type: 3}
    - {fileID: 21300000, guid: 9d166716e07466343a142ab15ecf6a80, type: 3}
    - {fileID: 21300000, guid: 2843d6b87dab6a34f88523e7cde72978, type: 3}
    - {fileID: 21300000, guid: 864aeba5a9118974388db98aba61cf5a, type: 3}
    - {fileID: 21300000, guid: da9c6905df905ef439ea29d60c8a257d, type: 3}
    - {fileID: 21300000, guid: 01aba55f66bf25e409cb6bd0e050501c, type: 3}
  m_AnimationClipSettings:
    serializedVersion: 2
    m_AdditiveReferencePoseClip: {fileID: 0}
    m_AdditiveReferencePoseTime: 0
    m_StartTime: 0
    m_StopTime: 0.8333333
    m_OrientationOffsetY: 0
    m_Level: 0
    m_CycleOffset: 0
    m_HasAdditiveReferencePose: 0
    m_LoopTime: 1
    m_LoopBlend: 0
    m_LoopBlendOrientation: 0
    m_LoopBlendPositionY: 0
    m_LoopBlendPositionXZ: 0
    m_KeepOriginalOrientation: 0
    m_KeepOriginalPositionY: 1
    m_KeepOriginalPositionXZ: 0
    m_HeightFromFeet: 0
    m_Mirror: 0
  m_EditorCurves: []
  m_EulerEditorCurves: []
  m_HasGenericRootTransform: 0
  m_HasMotionFloatCurves: 0
  m_GenerateMotionCurves: 0
  m_Events: []
