%YAML 1.1
%TAG !u! tag:unity3d.com,2011:
--- !u!1045 &1
EditorBuildSettings:
  m_ObjectHideFlags: 0
  serializedVersion: 2
  m_Scenes:
  - enabled: 1
    path: Assets/Scenes/Menu.unity
    guid: aa0d0bb0a16c767459a113bcbade1bee
  - enabled: 1
    path: Assets/Scenes/Level01.unity
    guid: 5db120743152d3e42a2e0273d4acf992
